{
  "_meta": {
    "sources": [
      "loopback/common/models",
      "loopback/server/models",
      "../common/models",
      "./models"
    ],
    "mixins": [
      "loopback/common/mixins",
      "loopback/server/mixins",
      "../common/mixins",
      "./mixins"
    ]
  },
  "Usuario": {
    "dataSource": "MySqlDb",
    "public": true
  },
  "Solicitud": {
    "dataSource": "MySqlDb",
    "public": true
  },
  "Plazo": {
    "dataSource": "MySqlDb",
    "public": true
  }
}
